................
----------------------------------------------------------------------
Ran 16 tests in 0.068s

OK
Name             Stmts   Miss Branch BrPart  Cover   Missing
------------------------------------------------------------
Collatz.py          33      3     14      1    91%   38->39, 39-41
TestCollatz.py      69      0      0      0   100%
------------------------------------------------------------
TOTAL              102      3     14      1    97%