1 10 20

2 25 24
3 40 112
9 25 24
1 1 1
945 1000 143
245 550 144
1 250 128
904 1005 174
4000 4020 189
100000 100001 129
350 999 179
2000 3000 217
4500 4550 184
20 40 112
934 1000 174
90 999 179
5 999 179
345 1000 179
49 320 131
43 1003 179
3000 3500 199
10209 10300 242
15342 15999 253
25934 26923 308
2345 2899 209
450 987 179
222 999 179
333 459 134
432 900 179
678 1000 179
2345 2450 165
8302 8450 234
9850 10000 242
5000 5200 179
5969 6300 262
2 99 119
9 25 24
25000 25025 158
9235 10005 260
4325 4898 215
10953 12934 268
7299 7599 239
25003 25099 233
45233 45509 239
12093 13000 263
7234 7899 239
234 1345 182
3456 5000 238
503 1200 182
2356 3463 217
456 1532 182
9235 10345 260
9495 10399 242
230 1450 182
3423 4529 238
9234 10234 260
5002 6700 262
4959 5300 192
3456 4599 238
15001 15340 271
27039 27858 259
250000 250000 151
25093 25450 264
32013 32099 254
5023 6001 236
8900 9000 247
523 2000 182
750 1599 182
3624 3700 207
9231 9459 260
2731 3459 217
8700 9400 260
2459 3500 217
5321 6832 262
432 1023 179
5092 6501 262
10234 11834 268
4329 5983 236
78 1532 182
1 1111 179
4329 5370 215
3520 3799 238
1738 2145 180
7777 8989 252
8945 9222 247
145 1200 182
4854 5210 210
2121 3345 217
2500 3478 217
8901 9453 260
2009 3598 217
7853 8945 252
300 1300 182
7289 8431 252
6589 7999 257
2345 4500 238
7325 8999 252
2799 3999 238
632 1300 182
100 200 125
201 210 89
900 1000 174
